^C:\USERS\ANIKET KULKARNI\DESKTOP\TEMP\TEMP\TEMP.CPP
C:\USERS\ANIKET KULKARNI\DESKTOP\TEMP\TEMP\DEBUG\VC141.PDB
C:\USERS\ANIKET KULKARNI\DESKTOP\TEMP\TEMP\DEBUG\VC141.IDB
C:\USERS\ANIKET KULKARNI\DESKTOP\TEMP\TEMP\DEBUG\TEMP.OBJ
^C:\USERS\ANIKET KULKARNI\DESKTOP\ASSIGNMENTS\TRYING_ASSIGNMENT\OPENGL\DIERECTX\INCOMPLIT\TEMP\TEMP\TEMP.CPP
C:\USERS\ANIKET KULKARNI\DESKTOP\ASSIGNMENTS\TRYING_ASSIGNMENT\OPENGL\DIERECTX\INCOMPLIT\TEMP\TEMP\DEBUG\VC141.PDB
C:\USERS\ANIKET KULKARNI\DESKTOP\ASSIGNMENTS\TRYING_ASSIGNMENT\OPENGL\DIERECTX\INCOMPLIT\TEMP\TEMP\DEBUG\VC141.IDB
C:\USERS\ANIKET KULKARNI\DESKTOP\ASSIGNMENTS\TRYING_ASSIGNMENT\OPENGL\DIERECTX\INCOMPLIT\TEMP\TEMP\DEBUG\TEMP.OBJ
