^C:\USERS\ANIKET KULKARNI\DESKTOP\TEMP\TEMP\DEBUG\TEMP.OBJ
C:\USERS\ANIKET KULKARNI\DESKTOP\TEMP\DEBUG\TEMP.ILK
C:\USERS\ANIKET KULKARNI\DESKTOP\TEMP\DEBUG\TEMP.EXE
C:\USERS\ANIKET KULKARNI\DESKTOP\TEMP\DEBUG\TEMP.PDB
^C:\USERS\ANIKET KULKARNI\DESKTOP\ASSIGNMENTS\TRYING_ASSIGNMENT\OPENGL\DIERECTX\INCOMPLIT\TEMP\TEMP\DEBUG\TEMP.OBJ
C:\USERS\ANIKET KULKARNI\DESKTOP\ASSIGNMENTS\TRYING_ASSIGNMENT\OPENGL\DIERECTX\INCOMPLIT\TEMP\DEBUG\TEMP.ILK
C:\USERS\ANIKET KULKARNI\DESKTOP\ASSIGNMENTS\TRYING_ASSIGNMENT\OPENGL\DIERECTX\INCOMPLIT\TEMP\DEBUG\TEMP.EXE
C:\USERS\ANIKET KULKARNI\DESKTOP\ASSIGNMENTS\TRYING_ASSIGNMENT\OPENGL\DIERECTX\INCOMPLIT\TEMP\DEBUG\TEMP.PDB
