^C:\USERS\ANIKET KULKARNI\DESKTOP\ASSIGNMENTS\TRYING_ASSIGNMENT\OPENGL\DIERECTX\3LIGHT_ON_SPHERE\TEMP\3LIGHT_ON_SPHERE.CPP
C:\USERS\ANIKET KULKARNI\DESKTOP\ASSIGNMENTS\TRYING_ASSIGNMENT\OPENGL\DIERECTX\3LIGHT_ON_SPHERE\TEMP\X64\DEBUG\VC141.PDB
C:\USERS\ANIKET KULKARNI\DESKTOP\ASSIGNMENTS\TRYING_ASSIGNMENT\OPENGL\DIERECTX\3LIGHT_ON_SPHERE\TEMP\X64\DEBUG\VC141.IDB
C:\USERS\ANIKET KULKARNI\DESKTOP\ASSIGNMENTS\TRYING_ASSIGNMENT\OPENGL\DIERECTX\3LIGHT_ON_SPHERE\TEMP\X64\DEBUG\3LIGHT_ON_SPHERE.OBJ
